<svg
  width="24"
  height="24"
  viewBox="0 0 24 24"
  xmlns="http://www.w3.org/2000/svg"
  fill="none"
  stroke="currentColor"
  stroke-width="2"
  stroke-linecap="round"
  stroke-linejoin="round"
>
  <path d="M20 21v-2a4 4 0 0 0-4-4H8a4 4 0 0 0-4 4v2" />
  <path d="M16 8.587a4 4 0 0 1-3.96 4A4 4 0 0 1 8 8.666" />
  <path d="M12.079 20.954v-2" />
  <path d="M7.964 8.187V6.238" />
  <path d="M16.049 8.064v-1.95" />
  <path d="M7.972 6.319v-1.95" />
  <path d="M9.167 5.065l-1.23-1.51" />
  <path d="M10.826 4.77l1.231-1.511" />
  <path d="M13.416 4.755l-1.231-1.51" />
  <path d="M14.806 5.02l1.231-1.51" />
  <path d="M16.049 6.064v-1.95" />
  <path d="M16.049 8.064v-1.95" />
  <path d="M9.366 5.864h5.346" />
</svg>
