<svg
  xmlns="http://www.w3.org/2000/svg"
  width="24"
  height="24"
  viewBox="0 0 24 24"
  fill="none"
  stroke="currentColor"
  stroke-width="2"
  stroke-linecap="round"
  stroke-linejoin="round"
>
  <path
    clip-rule="evenodd"
    d="M7 0a3 3 0 0 0-3 3v5.65L.22 13.374A1 1 0 0 0 1 15h8v6a1 1 0 1 0 2 0v-6h8a1 1 0 0 0 .78-1.625L16 8.65V3a3 3 0 0 0-3-3H7zM6 3a1 1 0 0 1 1-1h6a1 1 0 0 1 1 1v6a1 1 0 0 0 .22.625L16.92 13H3.08l2.7-3.375A1 1 0 0 0 6 9V3z"
  />
</svg>
