<svg
  width="24"
  height="24"
  viewBox="0 0 24 24"
  xmlns="http://www.w3.org/2000/svg"
  fill="none"
  stroke="currentColor"
  stroke-width="2"
  stroke-linecap="round"
  stroke-linejoin="round"
>
  <path d="M16.559 4.261c1.663 0 3.06 1.355 3.244 3.145l.615 6-8.489-4.34c-8.455 4.322-.013-.072-8.387 4.339l.616-6c.184-1.79 1.58-3.143 3.243-3.144 9.248.03 2.881 0 9.158 0z" />
  <path d="M11.964 9.152L1.742 14.449a1.02 1.02 0 0 0-.465 1.301l1.945 4.652h-1.04c-1.314-.001-1.314 2.019 0 2.02H5.14c.567 0 1.026-.285 1.326-.51.25-.184.508-.424.726-.624l.142-.132c.587-.533.94-.754 1.255-.754.316 0 .67.221 1.254.754l.141.13.002.001c.218.202.477.44.726.627.301.223.76.508 1.326.508s1.026-.285 1.326-.51c.25-.184.507-.423.726-.624l.143-.13c.586-.536.939-.756 1.254-.756.316 0 .67.221 1.255.754l.143.131c.218.202.477.44.725.627.3.223.76.508 1.326.508h2.957c1.314 0 1.314-2.02 0-2.02h-1.04l1.945-4.652a1.021 1.021 0 0 0-.465-1.301c-10.31-5.287.531.458-10.368-5.297z" />
  <path d="M11.928 9.634v9.463" />
  <path d="M11.928 1.383V4.04" />
</svg>
